…
  life_stage_t_test_results_list[[paste(stage1, stage2, sep = ".")]] <- t_test_results
}

# Combine results into a single data frame
life_stage_t_test_results_df <- bind_rows(life_stage_t_test_results_list, .id = "comparison")

# View the results
print(life_stage_t_test_results_df)
```

    # A tibble: 42 × 5
       Target           estimate_diff  p_value asterisk comparison    
       <chr>                    <dbl>    <dbl> <chr>    <chr>         
     1 ATPsynthase            0.292   0.0995   ""       juvenile.seed 
     2 DNMT1                 -0.0616  0.846    ""       juvenile.seed 
     3 HSP70                  0.976   0.0324   "*"      juvenile.seed 
     4 HSP90                  0.802   0.000644 "*"      juvenile.seed 
     5 cGAS                  -0.0369  0.924    ""       juvenile.seed 
     6 citrate synthase       0.158   0.502    ""       juvenile.seed 
     7 viperin                0.00222 0.996    ""       juvenile.seed 
     8 ATPsynthase           -0.252   0.124    ""       juvenile.adult
     9 DNMT1                 -0.152   0.562    ""       juvenile.adult
    10 HSP70                 -0.0139  0.976    ""       juvenile.adult
    # ℹ 32 more rows
…
    conditioning_treatment_t_test_results_list[[paste(stage, treatment1, treatment2, sep = ".")]] <- t_test_results
  }
}

# Combine results into a single data frame
conditioning_treatment_t_test_results_df <- bind_rows(conditioning_treatment_t_test_results_list, .id = "comparison")

# View the results
print(conditioning_treatment_t_test_results_df)
```

    # A tibble: 28 × 5
       Target           estimate_diff p_value asterisk comparison              
       <chr>                    <dbl>   <dbl> <chr>    <chr>                   
     1 ATPsynthase             0.427    0.103 ""       juvenile.control.treated
     2 DNMT1                   0.578    0.178 ""       juvenile.control.treated
     3 HSP70                  -0.587    0.351 ""       juvenile.control.treated
     4 HSP90                   0.0666   0.842 ""       juvenile.control.treated
     5 cGAS                    0.249    0.336 ""       juvenile.control.treated
     6 citrate synthase        0.384    0.209 ""       juvenile.control.treated
     7 viperin                 1.02     0.109 ""       juvenile.control.treated
     8 ATPsynthase             0.110    0.592 ""       seed.treated.control    
     9 DNMT1                   0.213    0.646 ""       seed.treated.control    
    10 HSP70                  -0.509    0.432 ""       seed.treated.control    
    # ℹ 18 more rows
…
        acute_treatment_within_life.stages_conditioning_t_test_results_list[[paste(stage, conditioning, treatment1, treatment2, sep = ".")]] <- t_test_results
      }
    }
  }
}

# Combine results into a single data frame
acute_treatment_within_life.stages_conditioning_t_test_results_df <- bind_rows(acute_treatment_within_life.stages_conditioning_t_test_results_list, .id = "comparison_id")

# View the results
print(acute_treatment_within_life.stages_conditioning_t_test_results_df)
```

    # A tibble: 56 × 6
       comparison_id                Target estimate_diff p_value asterisk comparison
       <chr>                        <chr>          <dbl>   <dbl> <chr>    <chr>     
     1 juvenile.control.high.ambie… ATPsy…        0.369   0.500  ""       juvenile.…
     2 juvenile.control.high.ambie… DNMT1        -0.170   0.811  ""       juvenile.…
     3 juvenile.control.high.ambie… HSP70         0.187   0.837  ""       juvenile.…
     4 juvenile.control.high.ambie… HSP90         0.995   0.0661 ""       juvenile.…
     5 juvenile.control.high.ambie… cGAS         -0.144   0.632  ""       juvenile.…
     6 juvenile.control.high.ambie… citra…        0.0872  0.844  ""       juvenile.…
     7 juvenile.control.high.ambie… viper…        0.680   0.590  ""       juvenile.…
     8 juvenile.treated.high.ambie… ATPsy…       -0.143   0.421  ""       juvenile.…
     9 juvenile.treated.high.ambie… DNMT1        -1.15    0.0274 "*"      juvenile.…
    10 juvenile.treated.high.ambie… HSP70         1.92    0.0306 "*"      juvenile.…
    # ℹ 46 more rows
…
